{
    "KPlugin": {
        "Authors": [
            {
                "Email": "glenn.ergeerts@telenet.be, marco.gulino@gmail.com",
                "Name": "Glenn Ergeerts, Marco Gulino",
                "Name[ar]": "Glenn Ergeerts, Marco Gulino",
                "Name[az]": "Glenn Ergeerts, Marco Gulino",
                "Name[be]": "Glenn Ergeerts, Marco Gulino",
                "Name[bg]": "Glenn Ergeerts, Marco Gulino",
                "Name[ca@valencia]": "Glenn Ergeerts, Marco Gulino",
                "Name[ca]": "Glenn Ergeerts, Marco Gulino",
                "Name[cs]": "Glenn Ergeerts, Marco Gulino",
                "Name[da]": "Glenn Ergeerts, Marco Gulino",
                "Name[de]": "Glenn Ergeerts, Marco Gulino",
                "Name[en_GB]": "Glenn Ergeerts, Marco Gulino",
                "Name[eo]": "Glenn Ergeerts, Marco Gulino",
                "Name[es]": "Glenn Ergeerts, Marco Gulino",
                "Name[et]": "Glenn Ergeerts, Marco Gulino",
                "Name[eu]": "Glenn Ergeerts, Marco Gulino",
                "Name[fi]": "Glenn Ergeerts, Marco Gulino",
                "Name[fr]": "Glenn Ergeerts, Marco Gulino",
                "Name[gl]": "Glenn Ergeerts, Marco Gulino",
                "Name[he]": "גלן ארגירטס, מרקו גולינו",
                "Name[hi]": "ग्लेन एर्जर्ट्स, मार्को गुलिनो",
                "Name[hu]": "Glenn Ergeerts, Marco Gulino",
                "Name[ia]": "Glenn Ergeerts, Marco Gulino",
                "Name[id]": "Glenn Ergeerts, Marco Gulino",
                "Name[is]": "Glenn Ergeerts, Marco Gulino",
                "Name[it]": "Glenn Ergeerts, Marco Gulino",
                "Name[ja]": "Glenn Ergeerts, Marco Gulino",
                "Name[ka]": "Glenn Ergeerts, Marco Gulino",
                "Name[ko]": "Glenn Ergeerts, Marco Gulino",
                "Name[lt]": "Glenn Ergeerts, Marco Gulino",
                "Name[lv]": "Glenn Ergeerts, Marco Gulino",
                "Name[nl]": "Glenn Ergeerts, Marco Gulino",
                "Name[nn]": "Glenn Ergeerts, Marco Gulino",
                "Name[pl]": "Glenn Ergeerts, Marco Gulino",
                "Name[pt]": "Glenn Ergeerts, Marco Gulino",
                "Name[pt_BR]": "Glenn Ergeerts, Marco Gulino",
                "Name[ro]": "Glenn Ergeerts, Marco Gulino",
                "Name[ru]": "Glenn Ergeerts, Marco Gulino",
                "Name[sa]": "ग्लेन एर्गेर्ट्स्, मार्को गुलिनो",
                "Name[sk]": "Glenn Ergeerts, Marco Gulino",
                "Name[sl]": "Glenn Ergeerts, Marco Gulino",
                "Name[sv]": "Glenn Ergeerts, Marco Gulino",
                "Name[ta]": "கிலென் எர்கீர்டுஸ், மார்க்கோ குலீனோ",
                "Name[tr]": "Glenn Ergeerts, Marco Gulino",
                "Name[uk]": "Glenn Ergeerts, Marco Gulino",
                "Name[vi]": "Glenn Ergeerts, Marco Gulino",
                "Name[x-test]": "xxGlenn Ergeerts, Marco Gulinoxx",
                "Name[zh_CN]": "Glenn Ergeerts, Marco Gulino",
                "Name[zh_TW]": "Glenn Ergeerts, Marco Gulino"
            }
        ],
        "Description": "Find and open bookmarks",
        "Description[ar]": "اعثر على العلامات وافتحها",
        "Description[az]": "Əlfəcinləri tapmaq və açmaq",
        "Description[be]": "Пошук і адкрыццё закладак",
        "Description[bg]": "Намиране и отваряне на отметки",
        "Description[ca@valencia]": "Busca i obri adreces d'interés",
        "Description[ca]": "Cerca i obre adreces d'interès",
        "Description[cs]": "Najít a otevřít záložku",
        "Description[da]": "Find og åbn bogmærker",
        "Description[de]": "Lesezeichen finden und aufrufen",
        "Description[en_GB]": "Find and open bookmarks",
        "Description[eo]": "Trovi kaj malfermi legosignon",
        "Description[es]": "Buscar y abrir marcadores",
        "Description[et]": "Järjehoidjate otsimine ja avamine",
        "Description[eu]": "Bilatu eta ireki laster-markak",
        "Description[fi]": "Etsi ja avaa kirjanmerkkejä",
        "Description[fr]": "Trouver et ouvrir des signets",
        "Description[gl]": "Atopar e abrir marcadores.",
        "Description[he]": "איתור ופתיחת סימניות",
        "Description[hi]": "पुस्तचिन्ह ढूंढें व खोलें",
        "Description[hu]": "Könyvjelzőmegnyitó",
        "Description[ia]": "Trova e aperi marcatores de libro",
        "Description[id]": "Temukan dan buka markah-markah",
        "Description[is]": "Finna og opna bókamerki",
        "Description[it]": "Trova e apri i segnalibri",
        "Description[ja]": "ブックマークを探して開きます",
        "Description[ka]": "იპოვეთ და გახსენით სანიშნები",
        "Description[ko]": "책갈피를 탐색하고 열기",
        "Description[lt]": "Rasti ir atverti žymeles",
        "Description[lv]": "Atrodiet un atveriet grāmatzīmes",
        "Description[nl]": "Bladwijzers vinden en openen",
        "Description[nn]": "Finn og opna bokmerke",
        "Description[pa]": "ਬੁੱਕਮਾਰਕ ਖੋਜੋ ਅਤੇ ਖੋਲ੍ਹੋ",
        "Description[pl]": "Wyszukuje i otwiera zakładki",
        "Description[pt]": "Descobrir e abrir os favoritos",
        "Description[pt_BR]": "Localiza e abre favoritos",
        "Description[ro]": "Caută și deschide semne de carte",
        "Description[ru]": "Закладки",
        "Description[sa]": "पुस्तकचिह्नानि अन्विष्य उद्घाटयन्तु",
        "Description[sk]": "Nájsť a otvoriť záložky",
        "Description[sl]": "Najdi in odpri zaznamke",
        "Description[sv]": "Sök efter och öppna bokmärken",
        "Description[ta]": "நினைவுக்குறிகளை கண்டுபிடித்து திறக்கும்",
        "Description[tr]": "Yer imlerini bul ve aç",
        "Description[uk]": "Знайти і відкрити закладки",
        "Description[vi]": "Tìm và mở dấu nhớ",
        "Description[x-test]": "xxFind and open bookmarksxx",
        "Description[zh_CN]": "查找并打开书签",
        "Description[zh_TW]": "尋找並開啟書籤",
        "EnabledByDefault": true,
        "Icon": "bookmarks",
        "License": "LGPL",
        "Name": "Bookmarks",
        "Name[ar]": "العلامات",
        "Name[ast]": "Marcadores",
        "Name[az]": "Əlfəcinlər",
        "Name[be]": "Закладкі",
        "Name[bg]": "Отметки",
        "Name[ca@valencia]": "Adreces d'interés",
        "Name[ca]": "Adreces d'interès",
        "Name[cs]": "Záložky",
        "Name[da]": "Bogmærker",
        "Name[de]": "Lesezeichen",
        "Name[en_GB]": "Bookmarks",
        "Name[eo]": "Legosignoj",
        "Name[es]": "Marcadores",
        "Name[et]": "Järjehoidjad",
        "Name[eu]": "Laster-markak",
        "Name[fi]": "Kirjanmerkit",
        "Name[fr]": "Signets",
        "Name[gl]": "Marcadores",
        "Name[he]": "סימניות",
        "Name[hi]": "पुस्तचिन्ह",
        "Name[hu]": "Könyvjelzők",
        "Name[ia]": "Marcatores de libro",
        "Name[id]": "Markah",
        "Name[is]": "Bókamerki",
        "Name[it]": "Segnalibri",
        "Name[ja]": "ブックマーク",
        "Name[ka]": "სანიშნები",
        "Name[ko]": "책갈피",
        "Name[lt]": "Žymelės",
        "Name[lv]": "Grāmatzīmes",
        "Name[nl]": "Bladwijzers",
        "Name[nn]": "Bokmerke",
        "Name[pa]": "ਬੁੱਕਮਾਰਕ",
        "Name[pl]": "Zakładki",
        "Name[pt]": "Favoritos",
        "Name[pt_BR]": "Favoritos",
        "Name[ro]": "Semne de carte",
        "Name[ru]": "Закладки",
        "Name[sa]": "पुस्तकचिह्नाः",
        "Name[sk]": "Záložky",
        "Name[sl]": "Zaznamki",
        "Name[sv]": "Bokmärken",
        "Name[ta]": "நினைவுக்குறிகள்",
        "Name[tok]": "ijo suli",
        "Name[tr]": "Yer İmleri",
        "Name[uk]": "Закладки",
        "Name[vi]": "Dấu nhớ",
        "Name[x-test]": "xxBookmarksxx",
        "Name[zh_CN]": "书签",
        "Name[zh_TW]": "書籤"
    },
    "X-Plasma-Runner-Unique-Results": true,
    "X-Plasma-Runner-Weak-Results": true
}
