{
    "KPlugin": {
        "Description": "Applies extracted accent color from wallpaper on request",
        "Description[ar]": "تطبق لون التمييز المستخرج من صورة الخلفية عند الطلب",
        "Description[az]": "Tələbə görə fərqləndirmə rəngini divar kağızındakı rəngə uyğun olaraq təyin edir",
        "Description[be]": "Ужывае па запыце выняты са шпалер дамінанты колер",
        "Description[bg]": "Прилага извлечен цвят на акцента от тапета при заявка",
        "Description[ca@valencia]": "Aplica el color d'accent extret a partir del fons de pantalla a petició",
        "Description[ca]": "Aplica el color d'accent extret a partir del fons de pantalla a petició",
        "Description[cs]": "Použije na požádání získanou barvu nádechu tapety",
        "Description[de]": "Wendet die aus dem Hintergrundbild abgeleitete Akzentfarbe auf Anforderung an",
        "Description[en_GB]": "Applies extracted accent colour from wallpaper on request",
        "Description[eo]": "Aplikas ĉerpitan akcentkoloron de tapeto laŭ peto",
        "Description[es]": "Aplica el color de acento extraído del fondo de pantalla bajo petición",
        "Description[eu]": "Horma-paperetik ateratako azentu-kolorea ezartzen du hala eskatzean",
        "Description[fi]": "Käyttää pyydettäessä taustakuvasta irrotettua korostusväriä",
        "Description[fr]": "Applique une couleur accentuée extraite du fond d'écran à partir d'une requête",
        "Description[gl]": "Aplicar a cor de acento extraída do fondo ao solicitalo.",
        "Description[he]": "מחיל צבע משני שמחולץ מתמונה לפי בקשה",
        "Description[hi]": "अनुरोध पर वॉलपेपर से निकाले गए प्रभावी रंग को लागू करता है",
        "Description[hu]": "A háttérképről kiválasztott kiemelőszín alkalmazása kérésre",
        "Description[ia]": "Applic accento de color extracte ab le tapete de papiro sur requesta",
        "Description[is]": "Notar áherslulit úr veggfóðri eftir beiðni",
        "Description[it]": "Applica il colore secondario estratto dallo sfondo su richiesta",
        "Description[ja]": "要求に応じて壁紙から抽出されたアクセントカラーを適用します",
        "Description[ka]": "მოთხოვნისას ფონიდან მოპოვებული ფერის გადატარება",
        "Description[ko]": "요청을 받았을 때 배경 그림에서 추출한 강조색 적용",
        "Description[lt]": "Pagal užklausą taiko iš darbalaukio fono išgautą paryškinimo spalvą",
        "Description[lv]": "Pēc pieprasījuma piemēro izvilkto akcenta krāsu no tapetes.",
        "Description[nl]": "Past de uitgepakte accentueerkleur uit achtergrondafbeelding op verzoek toe",
        "Description[nn]": "Tek i bruk uthenta kontrastfarge frå bakgrunnsbiletet ved førespurnad",
        "Description[pl]": "Stosuje wydobytą barwę akcentu z tapety na żądanie",
        "Description[pt]": "Aplica a cor acentuada extraída do papel de parede no pedido",
        "Description[pt_BR]": "Aplica a cor de destaque extraída do papel de parede a pedido",
        "Description[ru]": "Определение и применение цвета выделения на основании используемых обоев",
        "Description[sa]": "अनुरोधेन दीपचित्रतः निष्कासितं उच्चारणवर्णं प्रयोजयति",
        "Description[sk]": "Aplikuje extrahovanú farbu akcentu z tapety na požiadanie",
        "Description[sl]": "Uveljavi izločeno barvo poudarka iz ozadja na zahtevo",
        "Description[sv]": "Använder extraherad accentfärg från skrivbordsunderlägg på begäran",
        "Description[ta]": "கோரிக்கைக்கேற்ப, பின்புல படித்தின் பிரதான நிறத்தை நிறத்திட்டத்தின் சிறப்பு நிறமாக அமைக்கும்",
        "Description[tr]": "İsteğe bağlı olarak, duvar kağıdından çıkarılan vurgu rengini uygular",
        "Description[uk]": "Застосовує видобутий з фонового зображення стільниці колір акценту у відповідь на запит",
        "Description[vi]": "Áp dụng màu chủ đạo trích xuất từ phông nền khi có yêu cầu",
        "Description[x-test]": "xxApplies extracted accent color from wallpaper on requestxx",
        "Description[zh_CN]": "按照请求应用从壁纸中提取的重点色",
        "Description[zh_TW]": "要求時從桌布取出強調色並套用",
        "Name": "Accent Color",
        "Name[ar]": "لون التمييز",
        "Name[az]": "Fərqləndirmə rəngi",
        "Name[be]": "Дамінанты колер",
        "Name[bg]": "Цвят за акцентиране",
        "Name[ca@valencia]": "Color d'accent",
        "Name[ca]": "Color d'accent",
        "Name[cs]": "Barva nádechu",
        "Name[de]": "Akzentfarbe",
        "Name[en_GB]": "Accent Colour",
        "Name[eo]": "Emfazkoloro",
        "Name[es]": "Color de acento",
        "Name[et]": "Varjundivärv",
        "Name[eu]": "Azentu-kolorea",
        "Name[fi]": "Korostusväri",
        "Name[fr]": "Couleurs accentuées",
        "Name[gl]": "Cor de énfase",
        "Name[he]": "צבעים משניים",
        "Name[hi]": "प्रभावी रंग",
        "Name[hu]": "Kiemelőszín",
        "Name[ia]": "Color de accento",
        "Name[is]": "Áherslulitur",
        "Name[it]": "Colore secondario",
        "Name[ja]": "アクセントカラー",
        "Name[ka]": "აქცენტის ფერი",
        "Name[ko]": "강조 색상",
        "Name[lt]": "Paryškinimo spalva",
        "Name[lv]": "Akcenta krāsa",
        "Name[nl]": "Accentuatiekleur",
        "Name[nn]": "Kontrast­farge",
        "Name[pl]": "Kolor akcentu",
        "Name[pt]": "Cor Acentuada",
        "Name[pt_BR]": "Cor de destaque",
        "Name[ru]": "Служба цвета выделения",
        "Name[sa]": "उच्चारण रङ्ग",
        "Name[sk]": "Akcentová farba",
        "Name[sl]": "Barva poudarka",
        "Name[sv]": "Accentfärg",
        "Name[ta]": "சிறப்பு நிறம்",
        "Name[tok]": "kule wawa",
        "Name[tr]": "Vurgu Rengi",
        "Name[uk]": "Колір акценту",
        "Name[vi]": "Màu chủ đạo",
        "Name[x-test]": "xxAccent Colorxx",
        "Name[zh_CN]": "重点色",
        "Name[zh_TW]": "強調色"
    },
    "X-KDE-Kded-autoload": true
}
